Class 6a: Time Series
…
- Can past values predict future values?

--
- Yes, if they are correlated 

--
- We will measure **Autocorrelation**: 
    - Are values in previous period correlated with values in the next period?
    - So between `\(y_t\)` and `\(y_{t-1}\)`,$y_t$ and `\(y_{t-2}\)` etc
    
`$$\hat{\rho}_k=\frac{\sum^{n}_{t=k+1}(y_{t}-\bar{y})(y_{t-k}-\bar{y})}{\sum^{n}_{t=1}(y_t-\bar{y})^2}$$`

```
## # A tsibble: 360 x 5 [1M]
##       Month     M Lag1_M Lag2_M Lag3_M
##       <mth> <dbl>  <dbl>  <dbl>  <dbl>
##  1 1993 Jan 54850     NA     NA     NA
##  2 1993 Feb 54271  54850     NA     NA
##  3 1993 Mar 55350  54271  54850     NA
##  4 1993 Apr 52268  55350  54271  54850
##  5 1993 May 59671  52268  55350  54271
##  6 1993 Jun 47557  59671  52268  55350
##  7 1993 Jul 54503  47557  59671  52268
##  8 1993 Aug 51534  54503  47557  59671
##  9 1993 Sep 46000  51534  54503  47557
## 10 1993 Oct 51590  46000  51534  54503
## # ℹ 350 more rows
```
…
---
### First differencing

- Take the first differences

`$$\Delta y_t=y_t-y_{t-1}$$`
- First differences approximate how much data growth in each period
- If trend is linear, this variable should have more or less constant mean

---
### First differencing

```
## # A tsibble: 154 x 3 [1M]
##       Month     M Diff_M
##       <mth> <int>  <int>
##  1 2010 Mar    94     NA
##  2 2010 Apr    72    -22
##  3 2010 May    60    -12
##  4 2010 Jun    68      8
##  5 2010 Jul    61     -7
##  6 2010 Aug    69      8
##  7 2010 Sep    52    -17
##  8 2010 Oct    69     17
##  9 2010 Nov    47    -22
## 10 2010 Dec    97     50
## # ℹ 144 more rows
```
…
